{
  "CustomerArticleReplyAddResponse": {
    "customerArticleReplyVO": {
      "articleInfoId": "n",
      "articleReplyDetail": "deserunt Ut quis",
      "createPerson": "pariatur mollit reprehenderit Ut eu",
      "createTime": "1951-05-05T22:50:50.656Z",
      "customerArticleCommentId": "anim ex Excepteur Ut",
      "customerArticleReplyId": "pariatur irure elit in",
      "customerId": "anim dolor amet non",
      "customerName": "esse sunt quis ea consect",
      "delFlag": 0,
      "delPerson": "ea",
      "delTime": "1950-04-21T23:28:00.772Z",
      "headPicture": "fugiat est minim non",
      "isStar": 1,
      "relCustomerId": "velit dolore",
      "relCustomerName": "dolore magna veniam",
      "relHeadPicture": "reprehenderit veni",
      "replyTime": "mollit",
      "updatePerson": "fugiat labore tempor ad",
      "updateTime": "2013-05-12T03:18:08.47Z"
    }
  },
  "CustomerArticleReplyPageResponse": {
    "customerArticleReplyVOPage": {
      "content": [
        {
          "articleInfoId": "pariatur proident esse aute",
          "articleReplyDetail": "officia",
          "createPerson": "cillum proident enim",
          "createTime": "1969-07-05T05:25:58.086Z",
          "customerArticleCommentId": "nulla deserunt",
          "customerArticleReplyId": "in",
          "customerId": "dolore dolor eu",
          "customerName": "voluptate nisi",
          "delFlag": 0,
          "delPerson": "cillu",
          "delTime": "1970-05-31T03:01:00.733Z",
          "headPicture": "adipisicing Excepteur velit",
          "isStar": 0,
          "relCustomerId": "quis ut deserunt",
          "relCustomerName": "elit aliqua pariatur veniam",
          "relHeadPicture": "dolor Lorem mollit",
          "replyTime": "ea al",
          "updatePerson": "repre",
          "updateTime": "1984-08-04T23:47:07.812Z"
        },
        {
          "articleInfoId": "labore",
          "articleReplyDetail": "id aliqua qui",
          "createPerson": "ut ipsum aute",
          "createTime": "1966-11-29T13:03:13.377Z",
          "customerArticleCommentId": "laborum ut elit amet ad",
          "customerArticleReplyId": "Duis dolore ullamco n",
          "customerId": "quis",
          "customerName": "tempor",
          "delFlag": 0,
          "delPerson": "ullamco eu mollit dolore",
          "delTime": "1953-04-28T03:20:54.657Z",
          "headPicture": "laborum esse",
          "isStar": 0,
          "relCustomerId": "sint",
          "relCustomerName": "",
          "relHeadPicture": "sunt",
          "replyTime": "et culpa",
          "updatePerson": "quis Duis consequat qui eiusmod",
          "updateTime": "2012-11-27T15:20:03.512Z"
        },
        {
          "articleInfoId": "aliquip culpa dolor",
          "articleReplyDetail": "tempor",
          "createPerson": "sint u",
          "createTime": "1995-08-15T19:10:47.52Z",
          "customerArticleCommentId": "deserunt officia cupidatat eiusmod laboris",
          "customerArticleReplyId": "culpa elit",
          "customerId": "cupida",
          "customerName": "laboris ut sunt",
          "delFlag": 0,
          "delPerson": "qui dolore reprehenderit quis commodo",
          "delTime": "2016-06-17T08:23:56.94Z",
          "headPicture": "nostrud ea magna ut an",
          "isStar": 0,
          "relCustomerId": "et",
          "relCustomerName": "enim",
          "relHeadPicture": "ea aliqua a",
          "replyTime": "irure proident tempor elit anim",
          "updatePerson": "exercitation culpa proident pariatur",
          "updateTime": "1952-03-11T00:13:55.502Z"
        },
        {
          "articleInfoId": "enim non ad eiusmod proident",
          "articleReplyDetail": "id culpa ullamco",
          "createPerson": "commodo veniam",
          "createTime": "1986-12-27T20:18:41.633Z",
          "customerArticleCommentId": "ea",
          "customerArticleReplyId": "eu anim esse tempor",
          "customerId": "anim",
          "customerName": "reprehenderit consequat",
          "delFlag": 1,
          "delPerson": "laboris adipisicing dolore culpa",
          "delTime": "1965-12-14T13:34:43.259Z",
          "headPicture": "aute consequat enim",
          "isStar": 1,
          "relCustomerId": "ut et sunt ipsum",
          "relCustomerName": "eiusmod pariatur amet irure ex",
          "relHeadPicture": "dolor sunt ex",
          "replyTime": "laboris Lorem in proident ut",
          "updatePerson": "nostr",
          "updateTime": "1943-01-25T12:03:07.041Z"
        },
        {
          "articleInfoId": "dolor proident dolore aliquip",
          "articleReplyDetail": "reprehenderit",
          "createPerson": "anim",
          "createTime": "1974-03-13T13:01:55.113Z",
          "customerArticleCommentId": "nisi",
          "customerArticleReplyId": "vo",
          "customerId": "incididunt ipsum proident magna",
          "customerName": "laboris aliqua aliquip do",
          "delFlag": 0,
          "delPerson": "eu",
          "delTime": "1966-07-09T13:06:09.946Z",
          "headPicture": "nisi",
          "isStar": 1,
          "relCustomerId": "Ut Excep",
          "relCustomerName": "occaecat culpa ad minim",
          "relHeadPicture": "nisi",
          "replyTime": "fugiat laborum deserunt dolore eu",
          "updatePerson": "culpa ullamco officia aliquip",
          "updateTime": "1998-06-25T01:22:50.057Z"
        }
      ],
      "first": true,
      "last": false,
      "number": 22359268,
      "numberOfElements": 86271498,
      "size": -37943606,
      "sort": {},
      "total": 38146754,
      "totalElements": -19250079,
      "totalPages": 99805477
    }
  },
  "CustomerArticleReplyByIdResponse": {
    "customerArticleReplyVO": {
      "articleInfoId": "non labore aliqua qui",
      "articleReplyDetail": "velit cupidatat sed ex",
      "createPerson": "dolor cillum laboris",
      "createTime": "1996-02-05T08:46:15.72Z",
      "customerArticleCommentId": "incididunt",
      "customerArticleReplyId": "Ut voluptate",
      "customerId": "laborum adipisicing",
      "customerName": "est ex dolor culpa",
      "delFlag": 0,
      "delPerson": "magna",
      "delTime": "1964-03-07T03:55:24.798Z",
      "headPicture": "exercitation elit",
      "isStar": 1,
      "relCustomerId": "elit",
      "relCustomerName": "do",
      "relHeadPicture": "ullamco",
      "replyTime": "non ullamco nostrud irure",
      "updatePerson": "pariatur non cillum proident",
      "updateTime": "1954-12-22T15:59:16.278Z"
    }
  }
}