{
  "CustomerDeliveryAddressByIdResponse": {
    "addrLat": 792588,
    "addrLng": -62089011,
    "areaId": -54511929,
    "cityId": 40070357,
    "consigneeName": "tempor",
    "consigneeNumber": "sint quis Excepteur amet dolor",
    "createPerson": "magna",
    "createTime": "2009-05-27T01:58:23.058Z",
    "customerId": "Excepteur dolore in",
    "delFlag": 1,
    "deletePerson": "Lorem",
    "deleteTime": "1967-06-29T23:24:16.677Z",
    "deliveryAddress": "nisi Excepteur do est",
    "deliveryAddressId": "qui aliquip dolore",
    "isDefaltAddress": 1,
    "provinceId": -84455501,
    "updatePerson": "enim sunt",
    "updateTime": "1986-01-13T20:35:57.192Z"
  },
  "CustomerDeliveryAddressVOArray": [
    {
      "addrLat": 67003271,
      "addrLng": 72983719,
      "areaId": -5980373,
      "cityId": -68016639,
      "consigneeName": "ad sunt dolore est exercitati",
      "consigneeNumber": "consectetur id",
      "createPerson": "in elit cillum sunt",
      "createTime": "2007-10-07T03:17:28.314Z",
      "customerId": "laborum",
      "delFlag": 0,
      "deletePerson": "se",
      "deleteTime": "1972-12-14T16:17:37.001Z",
      "deliveryAddress": "veniam ex id labore ",
      "deliveryAddressId": "anim aute",
      "isDefaltAddress": 0,
      "provinceId": -58869637,
      "updatePerson": "est ad et ea cillum",
      "updateTime": "1955-04-23T15:55:22.971Z"
    },
    {
      "addrLat": 64596126,
      "addrLng": 48616759,
      "areaId": -62290738,
      "cityId": 402858,
      "consigneeName": "ex fugiat Excepteur temp",
      "consigneeNumber": "laborum",
      "createPerson": "id ea elit",
      "createTime": "2008-08-31T15:34:31.145Z",
      "customerId": "occaecat laboris",
      "delFlag": 0,
      "deletePerson": "enim quis",
      "deleteTime": "2000-07-31T04:34:13.219Z",
      "deliveryAddress": "pariatur minim occaecat sit Duis",
      "deliveryAddressId": "in Duis",
      "isDefaltAddress": 1,
      "provinceId": 25966924,
      "updatePerson": "mollit incididunt",
      "updateTime": "1946-12-31T04:04:49.532Z"
    },
    {
      "addrLat": -66693214,
      "addrLng": -49610323,
      "areaId": 85456756,
      "cityId": -94084353,
      "consigneeName": "qui laborum irure adipisicing",
      "consigneeNumber": "est culpa",
      "createPerson": "ut eu sed sit",
      "createTime": "1986-04-03T13:36:24.182Z",
      "customerId": "velit eiusmod aliquip dolor",
      "delFlag": 1,
      "deletePerson": "irure magna qui pariatur dolore",
      "deleteTime": "1985-12-06T06:35:23.647Z",
      "deliveryAddress": "des",
      "deliveryAddressId": "fugiat",
      "isDefaltAddress": 0,
      "provinceId": -45072462,
      "updatePerson": "do off",
      "updateTime": "2018-12-27T15:29:28.043Z"
    },
    {
      "addrLat": 33998825,
      "addrLng": -82406841,
      "areaId": 5137832,
      "cityId": -18952365,
      "consigneeName": "occaecat",
      "consigneeNumber": "sint laborum aute",
      "createPerson": "officia in fugiat ad ex",
      "createTime": "1962-08-10T12:36:24.57Z",
      "customerId": "aliquip ut reprehenderit",
      "delFlag": 0,
      "deletePerson": "non sint ",
      "deleteTime": "1944-01-01T10:29:02.907Z",
      "deliveryAddress": "sit",
      "deliveryAddressId": "moll",
      "isDefaltAddress": 1,
      "provinceId": 26734828,
      "updatePerson": "es",
      "updateTime": "1957-08-26T19:00:14.198Z"
    },
    {
      "addrLat": 32411452,
      "addrLng": 77574717,
      "areaId": 54645268,
      "cityId": -69131651,
      "consigneeName": "consectetur",
      "consigneeNumber": "qui eiusmod",
      "createPerson": "aliqua pariatur et incididunt eu",
      "createTime": "1960-03-12T22:37:08.734Z",
      "customerId": "officia ut aliqua",
      "delFlag": 1,
      "deletePerson": "voluptate",
      "deleteTime": "1973-07-08T00:06:41.267Z",
      "deliveryAddress": "dolor nostrud mollit consectetur",
      "deliveryAddressId": "sed commodo anim",
      "isDefaltAddress": 1,
      "provinceId": 28540497,
      "updatePerson": "enim in sed nostrud",
      "updateTime": "1972-04-02T16:15:59.999Z"
    }
  ],
  "CustomerDeliveryAddressResponse": {
    "addrLat": 14371596,
    "addrLng": 52356436,
    "areaId": -34851793,
    "cityId": 72321964,
    "consigneeName": "nisi",
    "consigneeNumber": "commodo dolor eu officia eiusmod",
    "createPerson": "veniam aute proident",
    "createTime": "1949-10-01T03:36:10.142Z",
    "customerId": "labore aliqua laborum",
    "delFlag": 1,
    "deletePerson": "velit",
    "deleteTime": "1983-03-03T18:08:44.931Z",
    "deliveryAddress": "consequat aliquip eiusmod ipsum fugiat",
    "deliveryAddressId": "laboris",
    "isDefaltAddress": 0,
    "provinceId": 10303638,
    "updatePerson": "irure",
    "updateTime": "2019-03-30T14:23:59.0Z"
  },
  "CustomerEmailAddResponse": {
    "createPerson": "ullamco nisi ut tempor",
    "createTime": "1945-06-23T11:12:29.304Z",
    "customerEmailId": "laboris culpa aliquip",
    "customerId": "cillum tempo",
    "delFlag": 0,
    "delPerson": "minim",
    "delTime": "1946-01-11T09:24:03.997Z",
    "emailAddress": "deserunt et dolore",
    "updatePerson": "do Lorem",
    "updateTime": "1968-05-27T13:43:25.281Z"
  },
  "CustomerEmailVOArray": [
    {
      "createPerson": "quis aliqua cupidatat",
      "createTime": "1993-01-24T16:14:21.432Z",
      "customerEmailId": "in",
      "customerId": "aliqua occaecat esse consequat",
      "delFlag": 1,
      "delPerson": "cillum Lorem",
      "delTime": "1965-12-29T07:20:53.495Z",
      "emailAddress": "ipsum minim commodo velit",
      "updatePerson": "aute voluptate dolore consequat exercitation",
      "updateTime": "1990-02-08T08:01:21.547Z"
    },
    {
      "createPerson": "non",
      "createTime": "1993-11-17T15:29:11.819Z",
      "customerEmailId": "adipisicing dolore in",
      "customerId": "culpa aute veniam",
      "delFlag": 1,
      "delPerson": "Lorem",
      "delTime": "2008-03-28T04:59:25.065Z",
      "emailAddress": "mini",
      "updatePerson": "non sed consequat cupidatat amet",
      "updateTime": "1977-12-27T03:25:32.487Z"
    },
    {
      "createPerson": "proident do ipsum ut commodo",
      "createTime": "1989-03-21T16:12:53.746Z",
      "customerEmailId": "aliqua anim",
      "customerId": "ipsum irure ex",
      "delFlag": 1,
      "delPerson": "ad in",
      "delTime": "1975-08-07T18:18:59.825Z",
      "emailAddress": "aliquip nisi elit enim Lorem",
      "updatePerson": "ut in",
      "updateTime": "2001-03-16T19:52:17.176Z"
    },
    {
      "createPerson": "minim Duis",
      "createTime": "1976-05-08T07:51:12.874Z",
      "customerEmailId": "dolor",
      "customerId": "proident in",
      "delFlag": 0,
      "delPerson": "ut laboris exercitation enim id",
      "delTime": "2008-10-04T07:42:40.074Z",
      "emailAddress": "nisi",
      "updatePerson": "incididunt",
      "updateTime": "2002-08-01T00:02:37.506Z"
    },
    {
      "createPerson": "tempor",
      "createTime": "1967-11-25T20:24:50.241Z",
      "customerEmailId": "culpa dolore",
      "customerId": "Duis aliqua id",
      "delFlag": 0,
      "delPerson": "eu Lorem non cupidatat aute",
      "delTime": "1982-01-24T11:24:42.958Z",
      "emailAddress": "occaecat fugiat Ut ut sit",
      "updatePerson": "do ullamco sit sunt Lorem",
      "updateTime": "1969-01-10T03:39:08.401Z"
    }
  ],
  "noneName": false,
  "FollowListResponse": {
    "goodsInfos": {
      "content": [
        {
          "goodsId": "nostrud anim",
          "goodsInfoId": "ea sint elit aute dolor",
          "goodsInfoImg": "ex culpa",
          "goodsInfoName": "fugiat",
          "goodsInfoNo": "cupidatat aliquip culpa laboris",
          "marketPrice": -83963141.21270368
        }
      ],
      "first": true,
      "last": false,
      "number": 61174473,
      "numberOfElements": -93834614,
      "size": -45366260,
      "sort": {},
      "total": 26615823,
      "totalElements": -29217928,
      "totalPages": 40874690
    },
    "goodsIntervalPrices": [
      {
        "count": 37977433,
        "goodsId": "nisi dolor",
        "goodsInfoId": "laboris ad voluptate sint ipsum",
        "intervalPriceId": 11461809,
        "price": -54075449.627311036,
        "type": 1
      },
      {
        "count": 10179348,
        "goodsId": "aliquip eiusmod in dolor consectetur",
        "goodsInfoId": "irure ut",
        "intervalPriceId": -3104668,
        "price": 79436302.80091253,
        "type": 0
      },
      {
        "count": 12249160,
        "goodsId": "in enim tempor qui aute",
        "goodsInfoId": "incididunt nostrud in Excepteur eiusmod",
        "intervalPriceId": 99066589,
        "price": 87616640.5339736,
        "type": 1
      }
    ],
    "goodses": [
      {
        "addedFlag": 32790465,
        "addedTime": "2019-05-29T00:19:15.787Z",
        "allowPriceSet": -85354269,
        "approvalNumber": "ut",
        "attentions": "minim dolore nisi adipisicing",
        "auditReason": "nulla dolore dolor",
        "auditStatus": 1,
        "brandId": 17610969,
        "cateId": -34890790,
        "channelId": "exercitatio",
        "channelPrice": -34969545.16594064,
        "companyInfoId": 17322723,
        "companyType": 1,
        "component": "reprehenderit adipisicing",
        "costPrice": 36054528.035288006,
        "createTime": "2002-08-01T02:32:46.535Z",
        "customFlag": 68222007,
        "delFlag": 1,
        "drugFormId": -90319000,
        "drugTrack": -74291445,
        "drugType": 0,
        "englishName": "adipisicing mollit",
        "feature": "consectetur",
        "freightTempId": -80530387,
        "freightTempName": "magna sint officia fugiat",
        "generalName": "velit amet",
        "goodsCollectNum": 50436345,
        "goodsCubage": 7083862.298235118,
        "goodsDetail": "in",
        "goodsEvaluateNum": 87149070,
        "goodsFavorableCommentNum": -26629614,
        "goodsId": "ad labor",
        "goodsImg": "laborum enim",
        "goodsInfoIds": [
          "sit"
        ],
        "goodsMobileDetail": "et nisi minim ullamco dolore",
        "goodsName": "Excepteur irure velit incididunt elit",
        "goodsNo": "commodo minim elit in amet",
        "goodsSalesNum": -93215171,
        "goodsSubtitle": "in aute",
        "goodsUnit": "amet Duis",
        "goodsVideo": "velit dolor ci",
        "goodsViewNum": 21490178,
        "goodsWeight": -6480345.317700341,
        "grouponForbiddenFlag": false,
        "indications": "laboris minim nisi",
        "inputTaxRate": 83159747.6996516,
        "isExternalUse": -92700964,
        "isParticipateReward": -89685083,
        "itemNo": "enim a",
        "levelDiscountFlag": -15370290,
        "limitNum": -15884535,
        "linePrice": 3459834.3839765936,
        "mainBarcode": "eiusmod",
        "marketPrice": -82340768.03678843,
        "medicineType": 1,
        "minimumOrderQuantity": 97209395,
        "moreSpecFlag": -37960975,
        "orderGoodsMultiple": -87065877,
        "pinyinInitials": "adipisicing magna velit exercitatio",
        "priceType": 41067765,
        "produceCompany": "mollit consequat nisi",
        "producePlace": "nulla aliquip occaecat tempor",
        "salePrice": -78899701.55041137,
        "saleType": 24443299,
        "salesTaxRate": -84516591.19421469,
        "shelfLife": 69803435,
        "specParam": "laborum",
        "stock": 55285376,
        "storeCateIds": [
          -71651475,
          51409217,
          13341271,
          -34461979,
          77410796
        ],
        "storeCondition": "do officia",
        "storeId": 75006030,
        "submitTime": "1967-03-04T03:28:38.862Z",
        "supplierName": "reprehenderit tempor adipisicing aliqua",
        "taxTypeNo": "",
        "updateTime": "1983-02-27T05:00:41.378Z",
        "usageDesc": "in quis"
      },
      {
        "addedFlag": 96286646,
        "addedTime": "1980-03-15T04:02:18.965Z",
        "allowPriceSet": 66831566,
        "approvalNumber": "in pariatur ad",
        "attentions": "minim qui dolore quis in",
        "auditReason": "veniam consequat fugiat amet",
        "auditStatus": 0,
        "brandId": 38724287,
        "cateId": 31504586,
        "channelId": "quis",
        "channelPrice": -62269344.37298115,
        "companyInfoId": 98010824,
        "companyType": 1,
        "component": "Lorem ullamco",
        "costPrice": -87496660.49996439,
        "createTime": "1955-10-16T02:46:10.797Z",
        "customFlag": -66590843,
        "delFlag": 1,
        "drugFormId": -60019894,
        "drugTrack": -33268239,
        "drugType": 2,
        "englishName": "Excepteur enim",
        "feature": "ut ad consectetur ea",
        "freightTempId": -81148201,
        "freightTempName": "sit",
        "generalName": "Excepteur Ut",
        "goodsCollectNum": -73047240,
        "goodsCubage": -88716687.19084834,
        "goodsDetail": "sed proident si",
        "goodsEvaluateNum": 98544340,
        "goodsFavorableCommentNum": 53656123,
        "goodsId": "irure Lorem tempor",
        "goodsImg": "deserunt non Excepteur",
        "goodsInfoIds": [
          "nulla mollit ad officia veniam",
          "enim fugiat",
          "Duis deserunt do",
          "aliquip adipisicing tempor sed culpa",
          "deserunt mollit non"
        ],
        "goodsMobileDetail": "amet elit",
        "goodsName": "labore Excepteur occaecat off",
        "goodsNo": "ipsum nostrud proident irure",
        "goodsSalesNum": -67816352,
        "goodsSubtitle": "dolor et sunt quis",
        "goodsUnit": "ad Excepteur dolore",
        "goodsVideo": "aute",
        "goodsViewNum": 44269629,
        "goodsWeight": -95138912.06521268,
        "grouponForbiddenFlag": false,
        "indications": "proident Excepteur in",
        "inputTaxRate": 41011026.08795184,
        "isExternalUse": -62811945,
        "isParticipateReward": -28738886,
        "itemNo": "occaecat aliqua amet tempor",
        "levelDiscountFlag": 71522079,
        "limitNum": 52231716,
        "linePrice": 14343877.451835632,
        "mainBarcode": "id nostrud laboris aliqua ut",
        "marketPrice": 33946045.1010562,
        "medicineType": 0,
        "minimumOrderQuantity": -39412447,
        "moreSpecFlag": 29726212,
        "orderGoodsMultiple": -1878059,
        "pinyinInitials": "sit eu ea",
        "priceType": -87063651,
        "produceCompany": "laborum aliquip",
        "producePlace": "nulla irure",
        "salePrice": -90479120.55024505,
        "saleType": 36488331,
        "salesTaxRate": -64991475.51103901,
        "shelfLife": -9998080,
        "specParam": "nostrud",
        "stock": 66811722,
        "storeCateIds": [
          -4322608,
          -49936568
        ],
        "storeCondition": "dolor e",
        "storeId": -90526275,
        "submitTime": "1940-08-18T06:40:13.217Z",
        "supplierName": "s",
        "taxTypeNo": "nostrud magna eiusmod id",
        "updateTime": "1941-12-08T20:41:12.778Z",
        "usageDesc": "eu tempor"
      },
      {
        "addedFlag": 97459560,
        "addedTime": "1951-11-12T02:20:10.405Z",
        "allowPriceSet": 34193357,
        "approvalNumber": "esse",
        "attentions": "aute es",
        "auditReason": "irure",
        "auditStatus": 3,
        "brandId": 27091169,
        "cateId": -38008002,
        "channelId": "est adipisicing qui",
        "channelPrice": -94015924.38355637,
        "companyInfoId": -72535478,
        "companyType": 0,
        "component": "minim",
        "costPrice": -6128762.188189015,
        "createTime": "1979-06-27T07:28:46.441Z",
        "customFlag": -3949988,
        "delFlag": 0,
        "drugFormId": 69666359,
        "drugTrack": 60002597,
        "drugType": 1,
        "englishName": "laborum irure qui in",
        "feature": "exercitation proident",
        "freightTempId": 45705044,
        "freightTempName": "amet",
        "generalName": "in",
        "goodsCollectNum": 59341237,
        "goodsCubage": 68295902.04464108,
        "goodsDetail": "consequ",
        "goodsEvaluateNum": -96222378,
        "goodsFavorableCommentNum": 4987784,
        "goodsId": "eu quis consequat",
        "goodsImg": "commodo anim",
        "goodsInfoIds": [
          "cupidatat amet laborum"
        ],
        "goodsMobileDetail": "amet laborum consectetur",
        "goodsName": "sit",
        "goodsNo": "adipisicing",
        "goodsSalesNum": -1358181,
        "goodsSubtitle": "Lorem",
        "goodsUnit": "amet adipisicing",
        "goodsVideo": "consequat voluptate dolor",
        "goodsViewNum": 37390097,
        "goodsWeight": -60207915.236283325,
        "grouponForbiddenFlag": true,
        "indications": "elit adipisicing",
        "inputTaxRate": -3023900.2682268918,
        "isExternalUse": 69806082,
        "isParticipateReward": -212964,
        "itemNo": "nostrud",
        "levelDiscountFlag": -1740793,
        "limitNum": -72955026,
        "linePrice": -45972720.93445293,
        "mainBarcode": "esse qui dolore",
        "marketPrice": 23074657.77408111,
        "medicineType": 0,
        "minimumOrderQuantity": -81180751,
        "moreSpecFlag": 39892628,
        "orderGoodsMultiple": 50436748,
        "pinyinInitials": "non occaecat eu ea elit",
        "priceType": -8246374,
        "produceCompany": "in sed Lorem irure dolore",
        "producePlace": "in Lorem amet",
        "salePrice": -45537276.00585859,
        "saleType": -56123309,
        "salesTaxRate": 97487729.81373185,
        "shelfLife": 56368351,
        "specParam": "id non nisi",
        "stock": -55418751,
        "storeCateIds": [
          12343116
        ],
        "storeCondition": "pariatur laboris",
        "storeId": 55816349,
        "submitTime": "2017-06-23T05:08:16.064Z",
        "supplierName": "consectetur Ut occaecat voluptate",
        "taxTypeNo": "aute fugiat mollit officia",
        "updateTime": "2017-03-14T10:05:53.393Z",
        "usageDesc": "in ullamco aliq"
      }
    ]
  },
  "unknow": [
    "enim ",
    "ipsum nostrud"
  ]
}